<?xml version="1.0" encoding="UTF-8"?>
<robot generator="Robot 7.2.2 (Python 3.10.0 on win32)" generated="2025-05-29T11:13:00.289380" rpa="false" schemaversion="5">
<suite id="s1" name="Demo3 Req" source="D:\Balaji\Company\Vivriti\AutomationProject\robot_api_suite\demo3_req.robot">
<test id="s1-t1" name="TC3 List User" line="27">
<kw name="Create Dictionary" owner="BuiltIn">
<msg time="2025-05-29T11:13:00.851768" level="INFO">&amp;{header} = { x-api-key=reqres-free-v1 }</msg>
<var>&amp;{header}</var>
<arg>x-api-key=reqres-free-v1</arg>
<doc>Creates and returns a dictionary based on the given ``items``.</doc>
<status status="PASS" start="2025-05-29T11:13:00.851768" elapsed="0.002579"/>
</kw>
<kw name="Create Session" owner="RequestsLibrary">
<msg time="2025-05-29T11:13:00.855351" level="INFO">Creating Session using : alias=req, url=https://reqres.in, headers={'x-api-key': 'reqres-free-v1'},                     cookies={}, auth=None, timeout=None, proxies=None, verify=False,                     debug=0 </msg>
<arg>alias=req</arg>
<arg>url=https://reqres.in</arg>
<arg>headers=${header}</arg>
<doc>Create Session: create a HTTP session to a server</doc>
<status status="PASS" start="2025-05-29T11:13:00.854347" elapsed="0.001004"/>
</kw>
<kw name="GET On Session" owner="RequestsLibrary">
<msg time="2025-05-29T11:13:00.938985" level="INFO">GET Request : url=https://reqres.in/api/users?page=2 
 path_url=/api/users?page=2 
 headers={'User-Agent': 'python-requests/2.32.3', 'Accept-Encoding': 'gzip, deflate', 'Accept': '*/*', 'Connection': 'keep-alive', 'x-api-key': 'reqres-free-v1'} 
 body=None 
 </msg>
<msg time="2025-05-29T11:13:00.938985" level="INFO">GET Response : url=https://reqres.in/api/users?page=2 
 status=200, reason=OK 
 headers={'Date': 'Thu, 29 May 2025 05:43:00 GMT', 'Content-Type': 'application/json; charset=utf-8', 'Transfer-Encoding': 'chunked', 'Connection': 'keep-alive', 'Cf-Ray': '9473abf63fbcaa6a-MAA', 'Server': 'cloudflare', 'Content-Encoding': 'gzip', 'Report-To': '{"group":"heroku-nel","max_age":3600,"endpoints":[{"url":"https://nel.heroku.com/reports?ts=1748487106&amp;sid=c4c9725f-1ab0-44d8-820f-430df2718e11&amp;s=dLthw0X1xF5UlW9rcxNGqBpbKHCDT1qVwIRqf24OcEk%3D"}]}', 'Reporting-Endpoints': 'heroku-nel=https://nel.heroku.com/reports?ts=1748487106&amp;sid=c4c9725f-1ab0-44d8-820f-430df2718e11&amp;s=dLthw0X1xF5UlW9rcxNGqBpbKHCDT1qVwIRqf24OcEk%3D', 'Nel': '{"report_to":"heroku-nel","max_age":3600,"success_fraction":0.005,"failure_fraction":0.05,"response_headers":["Via"]}', 'X-Powered-By': 'Express', 'Access-Control-Allow-Origin': '*', 'Ratelimit-Policy': '100;w=60', 'Ratelimit-Limit': '100', 'Ratelimit-Remaining': '98', 'Ratelimit-Reset': '60', 'Etag': 'W/"440-ZjsmMKR8P3usr2uJZbOCGCxC3Uw"', 'Via': '1.1 vegur', 'Cache-Control': 'max-age=14400', 'Cf-Cache-Status': 'HIT', 'Age': '3068', 'Vary': 'Accept-Encoding', 'server-timing': 'cfL4;desc="?proto=TCP&amp;rtt=14920&amp;min_rtt=14191&amp;rtt_var=6780&amp;sent=5&amp;recv=6&amp;lost=0&amp;retrans=0&amp;sent_bytes=2836&amp;recv_bytes=802&amp;delivery_rate=210016&amp;cwnd=237&amp;unsent_bytes=0&amp;cid=662d4b02af77ceb7&amp;ts=32&amp;x=0"'} 
 body={"page":2,"per_page":6,"total":12,"total_pages":2,"data":[{"id":7,"email":"michael.lawson@reqres.in","first_name":"Michael","last_name":"Lawson","avatar":"https://reqres.in/img/faces/7-image.jpg"},{"id":8,"email":"lindsay.ferguson@reqres.in","first_name":"Lindsay","last_name":"Ferguson","avatar":"https://reqres.in/img/faces/8-image.jpg"},{"id":9,"email":"tobias.funke@reqres.in","first_name":"Tobias","last_name":"Funke","avatar":"https://reqres.in/img/faces/9-image.jpg"},{"id":10,"email":"byron.fields@reqres.in","first_name":"Byron","last_name":"Fields","avatar":"https://reqres.in/img/faces/10-image.jpg"},{"id":11,"email":"george.edwards@reqres.in","first_name":"George","last_name":"Edwards","avatar":"https://reqres.in/img/faces/11-image.jpg"},{"id":12,"email":"rachel.howell@reqres.in","first_name":"Rachel","last_name":"Howell","avatar":"https://reqres.in/img/faces/12-image.jpg"}],"support":{"url":"https://contentcaddy.io?utm_source=reqres&amp;utm_medium=json&amp;utm_campaign=referral","text":"Tired of writing endless social media content? Let Content Caddy generate it for you."}} 
 </msg>
<msg time="2025-05-29T11:13:00.938985" level="INFO">C:\Program Files\Python310\lib\site-packages\urllib3\connectionpool.py:1097: InsecureRequestWarning: Unverified HTTPS request is being made to host 'reqres.in'. Adding certificate verification is strongly advised. See: https://urllib3.readthedocs.io/en/latest/advanced-usage.html#tls-warnings
  warnings.warn(</msg>
<msg time="2025-05-29T11:13:00.938985" level="INFO">${response} = &lt;Response [200]&gt;</msg>
<var>${response}</var>
<arg>alias=req</arg>
<arg>url=api/users?page=2</arg>
<doc>Sends a GET request on a previously created HTTP Session.</doc>
<status status="PASS" start="2025-05-29T11:13:00.855351" elapsed="0.083634"/>
</kw>
<kw name="Log" owner="BuiltIn">
<msg time="2025-05-29T11:13:00.940528" level="INFO">{'page': 2, 'per_page': 6, 'total': 12, 'total_pages': 2, 'data': [{'id': 7, 'email': 'michael.lawson@reqres.in', 'first_name': 'Michael', 'last_name': 'Lawson', 'avatar': 'https://reqres.in/img/faces/7-image.jpg'}, {'id': 8, 'email': 'lindsay.ferguson@reqres.in', 'first_name': 'Lindsay', 'last_name': 'Ferguson', 'avatar': 'https://reqres.in/img/faces/8-image.jpg'}, {'id': 9, 'email': 'tobias.funke@reqres.in', 'first_name': 'Tobias', 'last_name': 'Funke', 'avatar': 'https://reqres.in/img/faces/9-image.jpg'}, {'id': 10, 'email': 'byron.fields@reqres.in', 'first_name': 'Byron', 'last_name': 'Fields', 'avatar': 'https://reqres.in/img/faces/10-image.jpg'}, {'id': 11, 'email': 'george.edwards@reqres.in', 'first_name': 'George', 'last_name': 'Edwards', 'avatar': 'https://reqres.in/img/faces/11-image.jpg'}, {'id': 12, 'email': 'rachel.howell@reqres.in', 'first_name': 'Rachel', 'last_name': 'Howell', 'avatar': 'https://reqres.in/img/faces/12-image.jpg'}], 'support': {'url': 'https://contentcaddy.io?utm_source=reqres&amp;utm_medium=json&amp;utm_campaign=referral', 'text': 'Tired of writing endless social media content? Let Content Caddy generate it for you.'}}</msg>
<arg>${response.json()}</arg>
<doc>Logs the given message with the given level.</doc>
<status status="PASS" start="2025-05-29T11:13:00.938985" elapsed="0.001543"/>
</kw>
<kw name="Get value from JSON" owner="RPA.JSON">
<msg time="2025-05-29T11:13:00.941547" level="INFO">Get value from JSON with expression: '$.page'</msg>
<msg time="2025-05-29T11:13:00.974563" level="INFO">${value} = 2</msg>
<var>${value}</var>
<arg>${response.json()}</arg>
<arg>$.page</arg>
<doc>Get a single value from a JSON serializable object that matches the given expression.</doc>
<status status="PASS" start="2025-05-29T11:13:00.940528" elapsed="0.034035"/>
</kw>
<kw name="Log" owner="BuiltIn">
<msg time="2025-05-29T11:13:00.975931" level="INFO">2</msg>
<arg>${value}</arg>
<doc>Logs the given message with the given level.</doc>
<status status="PASS" start="2025-05-29T11:13:00.974563" elapsed="0.001368"/>
</kw>
<kw name="Get value from JSON" owner="RPA.JSON">
<msg time="2025-05-29T11:13:00.976970" level="INFO">Get value from JSON with expression: '$.data[0].email'</msg>
<msg time="2025-05-29T11:13:01.002715" level="INFO">${value} = michael.lawson@reqres.in</msg>
<var>${value}</var>
<arg>${response.json()}</arg>
<arg>$.data[0].email</arg>
<doc>Get a single value from a JSON serializable object that matches the given expression.</doc>
<status status="PASS" start="2025-05-29T11:13:00.975931" elapsed="0.027815"/>
</kw>
<kw name="Log" owner="BuiltIn">
<msg time="2025-05-29T11:13:01.004289" level="INFO">michael.lawson@reqres.in</msg>
<arg>${value}</arg>
<doc>Logs the given message with the given level.</doc>
<status status="PASS" start="2025-05-29T11:13:01.003746" elapsed="0.000543"/>
</kw>
<kw name="Get values from JSON" owner="RPA.JSON">
<msg time="2025-05-29T11:13:01.005557" level="INFO">Get values from JSON with expression: '$.data[*].email'</msg>
<msg time="2025-05-29T11:13:01.032597" level="INFO">${value} = ['michael.lawson@reqres.in', 'lindsay.ferguson@reqres.in', 'tobias.funke@reqres.in', 'byron.fields@reqres.in', 'george.edwards@reqres.in', 'rachel.howell@reqres.in']</msg>
<var>${value}</var>
<arg>${response.json()}</arg>
<arg>$.data[*].email</arg>
<doc>Get all values from a JSON serializable object that match the given expression.</doc>
<status status="PASS" start="2025-05-29T11:13:01.004289" elapsed="0.028308"/>
</kw>
<kw name="Log" owner="BuiltIn">
<msg time="2025-05-29T11:13:01.033593" level="INFO">['michael.lawson@reqres.in', 'lindsay.ferguson@reqres.in', 'tobias.funke@reqres.in', 'byron.fields@reqres.in', 'george.edwards@reqres.in', 'rachel.howell@reqres.in']</msg>
<arg>${value}</arg>
<doc>Logs the given message with the given level.</doc>
<status status="PASS" start="2025-05-29T11:13:01.032597" elapsed="0.000996"/>
</kw>
<kw name="Get values from JSON" owner="RPA.JSON">
<msg time="2025-05-29T11:13:01.035169" level="INFO">Get values from JSON with expression: '$..email'</msg>
<msg time="2025-05-29T11:13:01.061756" level="INFO">${value} = ['michael.lawson@reqres.in', 'lindsay.ferguson@reqres.in', 'tobias.funke@reqres.in', 'byron.fields@reqres.in', 'george.edwards@reqres.in', 'rachel.howell@reqres.in']</msg>
<var>${value}</var>
<arg>${response.json()}</arg>
<arg>$..email</arg>
<doc>Get all values from a JSON serializable object that match the given expression.</doc>
<status status="PASS" start="2025-05-29T11:13:01.034133" elapsed="0.027623"/>
</kw>
<kw name="Log" owner="BuiltIn">
<msg time="2025-05-29T11:13:01.063299" level="INFO">['michael.lawson@reqres.in', 'lindsay.ferguson@reqres.in', 'tobias.funke@reqres.in', 'byron.fields@reqres.in', 'george.edwards@reqres.in', 'rachel.howell@reqres.in']</msg>
<arg>${value}</arg>
<doc>Logs the given message with the given level.</doc>
<status status="PASS" start="2025-05-29T11:13:01.061756" elapsed="0.001543"/>
</kw>
<kw name="Get value from JSON" owner="RPA.JSON">
<msg time="2025-05-29T11:13:01.064357" level="INFO">Get value from JSON with expression: '$..email'</msg>
<msg time="2025-05-29T11:13:01.091637" level="FAIL">ValueError: Found 6 matches: michael.lawson@reqres.in, lindsay.ferguson@reqres.in, tobias.funke@reqres.in, byron.fields@reqres.in, george.edwards@reqres.in, rachel.howell@reqres.in</msg>
<var>${value}</var>
<arg>${response.json()}</arg>
<arg>$..email</arg>
<doc>Get a single value from a JSON serializable object that matches the given expression.</doc>
<status status="FAIL" start="2025-05-29T11:13:01.063299" elapsed="0.029351">ValueError: Found 6 matches: michael.lawson@reqres.in, lindsay.ferguson@reqres.in, tobias.funke@reqres.in, byron.fields@reqres.in, george.edwards@reqres.in, rachel.howell@reqres.in</status>
</kw>
<kw name="Log" owner="BuiltIn">
<arg>${value}</arg>
<doc>Logs the given message with the given level.</doc>
<status status="NOT RUN" start="2025-05-29T11:13:01.092650" elapsed="0.000000"/>
</kw>
<kw name="Get values from JSON" owner="RPA.JSON">
<var>${value}</var>
<arg>${response.json()}</arg>
<arg>$.data[*].[\\email]</arg>
<doc>Get all values from a JSON serializable object that match the given expression.</doc>
<status status="NOT RUN" start="2025-05-29T11:13:01.092650" elapsed="0.000997"/>
</kw>
<kw name="Log" owner="BuiltIn">
<arg>${value}</arg>
<doc>Logs the given message with the given level.</doc>
<status status="NOT RUN" start="2025-05-29T11:13:01.094155" elapsed="0.000000"/>
</kw>
<status status="FAIL" start="2025-05-29T11:13:00.850759" elapsed="0.243396">ValueError: Found 6 matches: michael.lawson@reqres.in, lindsay.ferguson@reqres.in, tobias.funke@reqres.in, byron.fields@reqres.in, george.edwards@reqres.in, rachel.howell@reqres.in</status>
</test>
<status status="FAIL" start="2025-05-29T11:13:00.294341" elapsed="0.801292"/>
</suite>
<statistics>
<total>
<stat pass="0" fail="1" skip="0">All Tests</stat>
</total>
<tag>
</tag>
<suite>
<stat name="Demo3 Req" id="s1" pass="0" fail="1" skip="0">Demo3 Req</stat>
</suite>
</statistics>
<errors>
</errors>
</robot>
